%YAML 1.1
%TAG !u! tag:unity3d.com,2011:
--- !u!114 &11400000
MonoBehaviour:
  m_ObjectHideFlags: 0
  m_CorrespondingSourceObject: {fileID: 0}
  m_PrefabInternal: {fileID: 0}
  m_GameObject: {fileID: 0}
  m_Enabled: 1
  m_EditorHideFlags: 0
  m_Script: {fileID: 11500000, guid: 1101f5a0a6d03f44eafa8d5e38c6117b, type: 3}
  m_Name: SpeedIncrease
  m_EditorClassIdentifier: 
  skillName: Speed Increase
  description: Gives you speed +2
  skillImage: {fileID: 0}
  skillPointsCost: 1
  param1: 2
  passiveType: 4
